-------------------------------------------------------------------------------
Test set: com.sapient.week2.EmployeeDetailsTest
-------------------------------------------------------------------------------
Tests run: 4, Failures: 0, Errors: 0, Skipped: 0, Time elapsed: 0.022 s - in com.sapient.week2.EmployeeDetailsTest
